
  _____      _          _     ______                   __       
 |_   _|    (_)        / |_  |_   _ \                 [  |  _   
   | |      __   .--. `| |-'   | |_) |   .--.    .--.  | | / ]  
   | |   _ [  | ( (`\] | |     |  __'. / .'`\ \/ .'`\ \| '' <   
  _| |__/ | | |  `'.'. | |,   _| |__) || \__. || \__. || |`\ \  
 |________|[___][\__) )\__/  |_______/  '.__.'  '.__.'[__|  \_] 
                                                                
